[
  {
    "t1": {
      "a1_1": {
        "code": {
          "desc": "10",
          "result": 1,
          "message": "dagboek code is 10."
        },
        "description": {
          "desc": "Omschrijving",
          "result": 1,
          "message": "Dagboek omschrijving is Kas"
        },
        "type": {
          "desc": "Type",
          "result": 1,
          "message": "Type van dagboek 10 is Kas"
        },
        "glaccountcode": {
          "desc": "Gekoppelde GB-rekening",
          "result": 0,
          "message": "Toegewezen grootboekrekening 1001 aan dagboek 10 is niet gelijk aan verwachte grootboekrekening 1000"
        }
      },
      "a1_2": {
        "code": {
          "desc": "60",
          "result": 1,
          "message": "dagboek code is 60."
        },
        "description": {
          "desc": "Omschrijving",
          "result": 1,
          "message": "Dagboek omschrijving is Kas"
        },
        "type": {
          "desc": "Type",
          "result": 1,
          "message": "Type van dagboek 60 is Inkoop"
        },
        "glaccountcode": {
          "desc": "Gekoppelde GB-rekening",
          "result": 1,
          "message": "Toegewezen grootboekrekening aan dagboek 60 is 1600"
        }
      }
    },
    "t2": {
      "a2_1": {
        "code_0110": {
          "desc": "0110",
          "result": 0,
          "message": "Grootboekrekening 0110 is aanwezig in de leerlingadministratie terwijl dit niet verwacht is (vergeten te verwijderen of te veranderen?)"
        },
        "code_0140": {
          "desc": "0140",
          "result": 1,
          "message": "Grootboekrekening 0140 is verwijderd"
        },
        "code_0200": {
          "desc": "0200",
          "result": 1,
          "message": "Grootboekrekening 0200 is verwijderd"
        }
      },
      "a2_2": {
        "code": {
          "desc": "0440",
          "result": 1,
          "message": "Grootboekrekening 0440 is aanwezig"
        }
      },
      "a2_3": {
        "code": {
          "desc": "8002",
          "result": 1,
          "message": "Grootboekrekening 8002 is aanwezig"
        },
        "description": {
          "desc": "Omschrijving",
          "result": 1,
          "message": "Omschrijving van grootboekrekening 8002 is Omzet Verkoop Shop"
        }
      },
      "a2_4": {
        "code": {
          "desc": "1510",
          "result": 1,
          "message": "Grootboekrekening 1510 is aanwezig"
        },
        "description": {
          "desc": "Omschrijving",
          "result": 1,
          "message": "Omschrijving van grootboekrekening 1510 is Af te dragen BTW 6%"
        }
      }
    },
    "t3": {
      "a3_1": {
        "code": {
          "desc": "1",
          "result": 1,
          "message": "BTW code 1 is aanwezig"
        },
        "description": {
          "desc": "Omschrijving",
          "result": 1,
          "message": "Omschrijving van BTW code 1 is BTW 21%, exclusief"
        },
        "type": {
          "desc": "Type",
          "result": 0,
          "message": "Type 'geen BTW' van BTW code 2 is niet gelijk aan verwacht type 'Exclusief'"
        },
        "gltopaycode": {
          "desc": "GB-rekening af te dragen BTW",
          "result": 1,
          "message": "Rekening af te dragen BTW is ingesteld op 1510"
        },
        "gltoclaimcode": {
          "desc": "GB-rekening te vorderen BTW",
          "result": 1,
          "message": "Rekening te vorderen BTW is ingesteld op 1520"
        },
        "percentage": {
          "desc": "Percentage",
          "result": 1,
          "message": "Percentage van BTW code 1 is ingesteld op 6%"
        },
        "vatboxlink": {
          "desc": "BTW koppeling",
          "vatbox_1B": {
            "result": 1,
            "message": "Aangiftevak 1B is gekoppeld aan BTW code 1"
          },
          "vatbox_5B": {
            "desc": "BTW koppeling",
            "result": 1,
            "message": "Aangiftevak 5B is gekoppeld aan BTW code 1"
          }
        }
      },
      "a3_2": {
        "code": {
          "desc": "2",
          "result": 1,
          "message": "BTW code 2 is aanwezig"
        },
        "description": {
          "desc": "Omschrijving",
          "result": 1,
          "message": "Omschrijving van BTW code 2 is BTW 21%, exclusief"
        },
        "type": {
          "desc": "Type",
          "result": 1,
          "message": "Type van BTW code 2 is ingesteld op Exclusief"
        },
        "gltopaycode": {
          "desc": "GB-rekening af te dragen BTW",
          "result": 1,
          "message": "Rekening af te dragen BTW is ingesteld op 1500"
        },
        "gltoclaimcode": {
          "desc": "GB-rekening te vorderen BTW",
          "result": 1,
          "message": "Rekening te vorderen BTW is ingesteld op 1520"
        },
        "percentage": {
          "desc": "Percentage",
          "result": 1,
          "message": "Percentage van BTW code 2 is ingesteld op 21%"
        },
        "vatboxlink": {
          "desc": "BTW koppeling",
          "vatbox_1A": {
            "result": 1,
            "message": "Aangiftevak 1A is gekoppeld aan BTW code 2"
          },
          "vatbox_5B": {
            "desc": "BTW koppeling",
            "result": 1,
            "message": "Aangiftevak 5B is gekoppeld aan BTW code 2"
          }
        }
      },
      "a3_3": {
        "code": {
          "desc": "3",
          "result": 1,
          "message": "BTW code 3 is aanwezig"
        },
        "description": {
          "desc": "Omschrijving",
          "result": 1,
          "message": "Omschrijving van BTW code 3 is BTW 6%, inclusief"
        },
        "type": {
          "desc": "Type",
          "result": 1,
          "message": "Type van BTW code 3 is ingesteld op Inclusief"
        },
        "gltopaycode": {
          "desc": "GB rekening af te dragen BTW",
          "result": 1,
          "message": "Rekening af te dragen BTW is ingesteld op 1510"
        },
        "gltoclaimcode": {
          "desc": "GB rekening te vorderen BTW",
          "result": 1,
          "message": "Rekening te vorderen BTW is ingesteld op 1520"
        },
        "percentage": {
          "desc": "Percentage",
          "result": 1,
          "message": "Percentage van BTW code 3 is ingesteld op 6%"
        },
        "vatboxlink": {
          "desc": "BTW koppeling",
          "vatbox_1B": {
            "result": 1,
            "message": "Aangiftevak 1B is gekoppeld aan BTW code 3"
          },
          "vatbox_5B": {
            "desc": "BTW koppeling",
            "result": 1,
            "message": "Aangiftevak 5B is gekoppeld aan BTW code 3"
          }
        }
      }
    },
    "t4": {
      "a4_1": {
        "code": {
          "desc": "14",
          "result": 1,
          "message": "Betalingsconditie 14 is aanwezig"
        },
        "description": {
          "desc": "Omschrijving",
          "result": 1,
          "message": "Omschrijving van betalingsconditie 14 is '14 dagen'"
        },
        "paymentdays": {
          "desc": "Vervaldatum",
          "result": 0,
          "message": "Aantal dagen voor vervaldatum 15 is niet gelijk aan het verwachte aantal dagen van 14"
        }
      },
      "a4_2": {
        "code": {
          "desc": "45",
          "result": 1,
          "message": "Betalingsconditie 45 is aanwezig"
        },
        "description": {
          "desc": "Omschrijving",
          "result": 1,
          "message": "Omschrijving van betalingsconditie 45 is '45 dagen'"
        },
        "paymentdays": {
          "desc": "Vervaldatum",
          "result": 1,
          "message": "Aantal dagen voor vervaldatum is 45"
        }
      }
    },
    "t5": {
      "a5_1": {
        "name": {
          "desc": "Hogeschool van Amsterdam",
          "result": 0,
          "message": "Relatie Hogeschool van Amsterdam is niet aangemaakt"
        }
      },
      "a5_2": {
        "name": {
          "desc": "KPN B.V.",
          "result": 1,
          "message": "Relatie KPN B.V. is aanwezig"
        },
        "address": {
          "desc": "Adres",
          "result": 1,
          "message": "Adres en woonplaats zijn correct"
        },
        "Status": {
          "desc": "Status",
          "result": 0,
          "message": "Status 'C - Klant' voor relatie KPN B.V. is niet gelijk aan verwachte status 'A - Geen'"
        },
        "issupplier": {
          "desc": "Leverancier",
          "result": 1,
          "message": "Relatie KPN is aangemerkt als leverancier"
        },
        "issales": {
          "desc": "Klant",
          "result": 0,
          "message": "Relatie KPN is ten onrechte aangemerkt als klant"
        },
        "vatnumber": {
          "desc": "BTW nummer",
          "result": 1,
          "message": "BTW nummer is correct"
        },
        "paymentconditionpurchase": {
          "desc": "Betalingsconditie",
          "result": 1,
          "message": "Betalingsconditie is correct"
        },
        "glaccountpurchase": {
          "desc": "GB-rekening",
          "result": 1,
          "message": "Relatie KPN B.V. is gekoppeld aan grootboekrekening 5525"
        },
        "purchasevatcode": {
          "desc": "BTW code",
          "result": 1,
          "message": "Relatie KPN B.V. is gekoppeld aan BTW code 2"
        }
      }
    }
  }
]